{
	"name": "plsunit-server",
	"version": "1.0.0",
	"description": "PLSUnit Server",
	"main": "app/start.js",
	"scripts": {
		"test": "echo \"Error: no test specified\" && exit 1",
		"start": "nodemon app/start.js"
	},
	"author": "Etienne Kerinckx",
	"license": "ISC",
	"dependencies": {
		"body-parser": "^1.18.3",
		"cookie-parser": "^1.4.3",
		"debug": "^3.1.0",
		"express": "^4.16.3",
		"hbs": "^4.0.1",
		"morgan": "^1.9.0",
		"nodemon": "^1.17.5",
		"serve-favicon": "^2.5.0"
	}
}
